# 3ds Max Wavefront OBJ Exporter v0.97b - (c)2007 guruware
# File Created: 02.11.2018 13:49:38

mtllib Lamppost.mtl

#
# object LampPos
#

v  0.4352 0.0000 -1.5664
v  0.4352 0.0000 -2.7961
v  1.7610 0.0000 -2.7961
v  1.7610 0.0000 -1.5664
v  0.4352 73.6906 -1.5664
v  1.7610 73.6906 -1.5664
v  1.7610 73.1559 -2.2965
v  0.4352 73.1559 -2.2044
v  1.7610 72.4702 -1.0669
v  0.4352 72.5642 -1.5664
v  1.7610 72.5642 -2.7961
v  0.4352 72.5642 -2.7961
v  0.4352 72.5642 3.6148
v  1.7610 72.5642 3.6148
v  1.7610 73.6906 3.6148
v  0.4352 73.6906 3.6148
v  1.7610 72.5642 1.8744
v  0.4352 72.5642 1.8869
v  1.5358 72.4516 3.3895
v  0.6605 72.4516 3.3895
v  0.6605 72.4516 2.1101
v  1.5358 72.4516 2.1019
# 22 vertices

vn 0.0000 -1.0000 -0.0000
vn -0.0276 0.7820 -0.6227
vn 0.0000 0.8068 -0.5908
vn -0.0160 0.7927 -0.6095
vn -0.0446 0.7657 -0.6416
vn -0.0044 -0.0068 1.0000
vn 0.0000 -0.0069 1.0000
vn -0.3489 -0.0001 0.9372
vn -0.3526 0.0000 0.9358
vn 1.0000 0.0000 -0.0000
vn 0.0000 0.0000 -1.0000
vn -1.0000 0.0000 -0.0000
vn 0.0000 0.0000 1.0000
vn 0.0000 0.7071 -0.7072
vn -0.0530 0.6442 -0.7631
vn 0.0003 -0.9995 0.0319
vn -0.0707 -0.9975 -0.0000
vn 0.0000 1.0000 -0.0000
vn 0.0000 -0.8944 0.4472
vn -0.4472 -0.8944 -0.0000
vn -0.0042 -0.8944 -0.4472
vn 0.4472 -0.8944 -0.0000
# 22 vertex normals

vt 0.0195 0.9212 0.0000
vt 0.0195 0.9045 0.0000
vt 0.0374 0.9045 0.0000
vt 0.0374 0.9212 0.0000
vt 0.1612 0.9276 0.0000
vt 0.1545 0.9456 0.0000
vt 0.9981 0.9785 0.0000
vt 0.9981 0.9562 0.0000
vt 0.9990 0.8814 0.0000
vt 0.9990 0.8994 0.0000
vt 0.0184 0.8994 0.0000
vt 0.0172 0.8814 0.0000
vt 0.9981 0.9728 0.0000
vt 0.0162 0.9728 0.0000
vt 0.0175 0.9494 0.0000
vt 0.0082 0.9660 0.0000
vt 0.9981 0.9964 0.0000
vt 0.9908 0.9964 0.0000
vt 0.9908 0.9785 0.0000
vt 0.0010 0.9964 0.0000
vt 1.0009 0.7820 0.0000
vt 1.0009 0.7986 0.0000
vt 0.0190 0.7986 0.0000
vt 0.0190 0.7820 0.0000
vt 0.0195 0.9456 0.0000
vt 0.0010 0.9562 0.0000
vt 0.0010 0.8860 0.0000
vt 0.0010 0.9785 0.0000
vt 0.1147 0.9456 0.0000
vt 0.1145 0.9276 0.0000
vt 0.0162 0.8860 0.0000
vt 0.0195 0.9276 0.0000
vt 0.1116 0.9425 0.0000
vt 0.0942 0.9425 0.0000
vt 0.0942 0.9307 0.0000
vt 0.1115 0.9307 0.0000
vt 0.0911 0.9456 0.0000
vt 0.0911 0.9276 0.0000
vt 0.0038 0.7986 0.0000
vt 0.0110 0.7900 0.0000
vt 0.0190 0.8453 0.0000
vt 0.0190 0.8687 0.0000
vt 0.0038 0.8687 0.0000
vt 0.9828 0.9785 0.0000
vt 0.9828 0.9964 0.0000
vt 0.0403 0.9045 0.0000
vt 0.0582 0.9045 0.0000
vt 0.0582 0.9198 0.0000
vt 0.0403 0.9198 0.0000
vt 0.0896 0.9276 0.0000
vt 0.0896 0.9456 0.0000
vt 0.0162 0.9096 0.0000
# 52 texture coords

o LampPos
g LampPos
usemtl wire_177088027
s 2
f 1/1/1 2/2/1 3/3/1 
f 3/3/1 4/4/1 1/1/1 
s 4
f 5/7/2 6/17/3 7/18/4 
f 7/18/4 8/19/5 5/7/2 
s 8
f 1/9/6 4/10/7 9/11/8 
f 9/11/8 10/12/9 1/9/6 
s 16
f 4/8/10 3/13/10 11/14/10 
f 11/14/10 9/15/10 4/8/10 
s 32
f 3/20/11 2/28/11 12/44/11 
f 12/44/11 11/45/11 3/20/11 
s 64
f 2/21/12 1/22/12 10/23/12 
f 10/23/12 12/24/12 2/21/12 
s off
f 13/46/13 14/47/13 15/48/13 
f 15/48/13 16/49/13 13/46/13 
f 9/15/10 11/14/10 7/16/10 
f 7/16/10 6/26/10 9/15/10 
f 11/45/14 12/44/14 8/19/14 
f 8/19/15 7/18/15 11/45/15 
f 12/24/12 10/23/12 5/39/12 
f 5/39/12 8/40/12 12/24/12 
f 9/6/16 17/29/16 18/30/16 
f 18/30/17 10/5/17 9/6/17 
f 9/15/10 6/26/10 15/27/10 
f 15/27/10 14/31/10 17/52/10 
f 9/15/10 15/27/10 17/52/10 
f 6/25/18 5/32/18 16/50/18 
f 16/50/18 15/51/18 6/25/18 
f 5/39/12 10/23/12 18/41/12 
f 5/39/12 18/41/12 13/42/12 
f 5/39/12 13/42/12 16/43/12 
f 19/34/1 20/35/1 21/36/1 
f 21/36/1 22/33/1 19/34/1 
f 14/37/19 13/38/19 20/35/19 
f 20/35/19 19/34/19 14/37/19 
f 13/38/20 18/30/20 21/36/20 
f 21/36/20 20/35/20 13/38/20 
f 18/30/21 17/29/21 22/33/21 
f 22/33/21 21/36/21 18/30/21 
f 17/29/22 14/37/22 19/34/22 
f 19/34/22 22/33/22 17/29/22 
# 40 faces

