# 3ds Max Wavefront OBJ Exporter v0.97b - (c)2007 guruware
# File Created: 18.01.2019 16:06:19

mtllib tree01b.mtl

#
# object Trunk
#

v  -6.4816 0.0000 3.1964
v  -4.8077 0.0000 -3.0423
v  4.7916 0.0000 -3.1603
v  4.8297 0.0000 7.5081
v  -3.9361 12.9320 -1.9711
v  4.1408 13.5616 -2.1239
v  4.3529 13.7520 6.2477
v  -5.0521 15.2400 3.7601
v  -3.8105 27.5235 -0.6761
v  2.3599 28.1531 -0.3484
v  3.8794 28.3435 4.7562
v  -3.7562 29.8315 2.8857
v  -3.8105 42.4342 -0.6761
v  2.3599 42.9495 -0.3484
v  3.8794 43.1399 4.7562
v  -3.7562 44.7422 2.8857
# 16 vertices

vn 0.0000 -1.0000 -0.0000
vn -0.0254 0.0842 -0.9961
vn -0.0123 0.0756 -0.9971
vn 0.9984 0.0499 -0.0264
vn 0.9994 0.0343 -0.0036
vn -0.2430 0.0802 0.9667
vn -0.3562 -0.0012 0.9344
vn -0.9685 0.0993 -0.2286
vn -0.9622 0.0862 -0.2582
vn 0.0439 0.0879 -0.9952
vn -0.0279 0.1174 -0.9927
vn 0.9460 0.1504 -0.2872
vn 0.9992 0.0298 -0.0260
vn -0.2199 0.0921 0.9712
vn -0.2431 0.0795 0.9667
vn -0.9955 0.0860 -0.0405
vn -0.9792 0.0263 -0.2013
vn 0.0530 0.0000 -0.9986
vn 0.9584 0.0000 -0.2853
vn -0.2379 0.0000 0.9713
vn -0.9999 0.0000 0.0153
vn -0.0412 0.8388 -0.5429
vn 0.2286 0.9679 -0.1042
# 23 vertex normals

vt 0.0000 0.0000 0.0000
vt 0.0000 1.0000 0.0000
vt 1.0000 1.0000 0.0000
vt 1.0000 0.0000 0.0000
# 4 texture coords

o Trunk
g Trunk
usemtl wire_048024015
s 1
f 1/1/1 2/2/1 3/3/1 
f 3/3/1 4/4/1 1/1/1 
s off
f 2/2/2 5/2/2 6/3/2 
f 6/3/3 3/3/3 2/2/3 
f 3/3/4 6/3/4 7/4/4 
f 7/4/5 4/4/5 3/3/5 
f 4/4/6 7/4/6 8/1/6 
f 8/1/7 1/1/7 4/4/7 
f 1/1/8 8/1/8 5/2/8 
f 5/2/9 2/2/9 1/1/9 
f 5/2/10 9/2/10 10/3/10 
f 10/3/11 6/3/11 5/2/11 
f 6/3/12 10/3/12 11/4/12 
f 11/4/13 7/4/13 6/3/13 
f 7/4/14 11/4/14 12/1/14 
f 12/1/15 8/1/15 7/4/15 
f 8/1/16 12/1/16 9/2/16 
f 9/2/17 5/2/17 8/1/17 
f 10/3/18 9/2/18 13/2/18 
f 13/2/18 14/3/18 10/3/18 
f 11/4/19 10/3/19 14/3/19 
f 14/3/19 15/4/19 11/4/19 
f 12/1/20 11/4/20 15/4/20 
f 15/4/20 16/1/20 12/1/20 
f 9/2/21 12/1/21 16/1/21 
f 16/1/21 13/2/21 9/2/21 
f 14/3/22 13/2/22 16/1/22 
f 16/1/23 15/4/23 14/3/23 
# 28 faces

#
# object Head
#

v  2.8400 22.3978 8.8974
v  -1.3410 22.3978 8.8974
v  -4.7235 22.3978 6.4399
v  -6.0156 22.3978 2.4635
v  -4.7235 22.3978 -1.5130
v  -1.3410 22.3978 -3.9705
v  2.8400 22.3978 -3.9705
v  6.2226 22.3978 -1.5130
v  7.5146 22.3978 2.4635
v  6.2226 22.3978 6.4399
v  10.2625 24.3359 -4.4481
v  12.5082 24.3359 2.4635
v  4.3832 24.3359 -8.7197
v  -2.8841 24.3359 -8.7197
v  -8.7635 24.3359 -4.4481
v  -11.0092 24.3359 2.4635
v  -8.7635 24.3359 9.3750
v  -2.8841 24.3359 13.6466
v  4.3832 24.3359 13.6466
v  10.2625 24.3359 9.3750
v  13.4744 26.9227 -6.7817
v  16.4783 26.9227 2.4635
v  5.6100 26.9227 -12.4955
v  -4.1109 26.9227 -12.4955
v  -11.9753 26.9227 -6.7817
v  -14.9792 26.9227 2.4635
v  -11.9753 26.9227 11.7086
v  -4.1109 26.9227 17.4224
v  5.6100 26.9227 17.4224
v  13.4744 26.9227 11.7086
v  15.5673 29.3044 -8.3023
v  19.0653 29.3044 2.4635
v  6.4094 29.3044 -14.9559
v  -4.9104 29.3044 -14.9559
v  -14.0682 29.3044 -8.3023
v  -17.5662 29.3044 2.4635
v  -14.0682 29.3044 13.2292
v  -4.9104 29.3044 19.8828
v  6.4094 29.3044 19.8828
v  15.5673 29.3044 13.2292
v  17.0009 31.9424 -9.3439
v  20.8373 31.9424 2.4635
v  6.9570 31.9424 -16.6412
v  -5.4579 31.9424 -16.6412
v  -15.5018 31.9424 -9.3439
v  -19.3383 31.9424 2.4635
v  -15.5018 31.9424 14.2708
v  -5.4579 31.9424 21.5681
v  6.9570 31.9424 21.5681
v  17.0009 31.9424 14.2707
v  18.5732 36.0330 -10.4862
v  22.7808 36.0330 2.4635
v  7.5576 36.0330 -18.4895
v  -6.0585 36.0330 -18.4895
v  -17.0742 36.0330 -10.4862
v  -21.2818 36.0330 2.4635
v  -17.0742 36.0330 15.4131
v  -6.0585 36.0330 23.4164
v  7.5576 36.0330 23.4164
v  18.5732 36.0330 15.4131
v  19.9528 42.8783 -11.4885
v  24.4860 42.8783 2.4635
v  8.0845 42.8783 -19.4642
v  -6.5855 42.8783 -20.1113
v  -18.4537 42.8783 -11.4885
v  -22.9870 42.8783 2.4635
v  -18.4537 42.8783 16.4154
v  -6.5855 42.8783 25.0382
v  8.0845 42.8783 25.0382
v  19.9528 42.8783 16.4154
v  19.9528 51.7573 -11.4885
v  23.1213 51.7573 2.1836
v  8.0845 51.7573 -20.1113
v  -6.5855 51.7573 -19.2972
v  -18.4537 51.7573 -11.4885
v  -22.5215 51.7573 2.5118
v  -17.8960 51.7573 15.8352
v  -6.5855 51.7573 25.0382
v  8.0845 51.7573 24.2472
v  19.9528 51.7573 16.4154
v  18.7347 69.6286 -10.6036
v  22.9804 69.6286 2.4634
v  7.6193 69.6286 -17.3912
v  -6.1202 69.6286 -18.6794
v  -16.6197 69.6286 -10.2392
v  -21.4814 69.6286 3.3959
v  -17.2357 69.6286 15.5305
v  -7.8970 69.6286 22.3757
v  7.6193 69.6286 23.6063
v  18.2817 69.6286 15.0809
v  15.8188 88.3537 -8.4850
v  17.8622 88.3537 2.4634
v  6.5055 88.3537 -15.2516
v  -5.0064 88.3537 -15.2516
v  -14.3198 88.3537 -8.4850
v  -17.8771 88.3537 2.4635
v  -14.3198 88.8356 13.4119
v  -5.0064 88.3537 20.1785
v  6.5055 88.3537 20.1785
v  15.8188 88.3537 12.6131
v  12.4289 103.5325 -6.0221
v  15.1860 103.5325 2.4634
v  5.2106 103.5325 -11.2665
v  -3.8141 103.5325 -9.9852
v  -10.9298 103.5325 -6.0221
v  -12.9825 103.5325 2.8600
v  -10.9298 103.5325 10.9490
v  -3.7116 103.5325 16.1934
v  5.8216 103.5325 16.1934
v  12.4289 103.5325 10.9490
v  7.3692 115.7797 -2.3461
v  8.9320 115.7797 2.4634
v  3.2780 115.7797 -5.3185
v  -1.7790 115.7797 -5.3185
v  -5.8702 115.7797 -2.3461
v  -7.4329 115.7797 2.4634
v  -5.8702 115.7797 7.2730
v  -1.7790 115.7797 10.2454
v  3.2780 115.7797 10.2454
v  7.3693 115.7797 7.2730
v  5.0163 120.4540 -0.6365
v  6.0235 120.4540 2.4634
v  2.3793 120.4540 -2.5524
v  -0.8802 120.4540 -2.5524
v  -3.5172 120.4540 -0.6365
v  -4.5245 120.4540 2.4634
v  -3.5172 120.4540 5.5634
v  -0.8802 120.4540 7.4793
v  2.3793 120.4540 7.4793
v  5.0163 120.4540 5.5634
v  2.6974 124.6821 1.0483
v  3.1572 124.6821 2.4634
v  1.4935 124.6821 0.1736
v  0.0055 124.6821 0.1736
v  0.7495 124.6821 0.1736
v  -1.1983 124.6821 1.0483
v  -1.6582 124.6821 2.4634
v  -1.1983 124.6821 3.8786
v  0.0055 124.6821 4.7533
v  1.4935 124.6821 4.7533
v  0.7495 124.6821 4.7533
v  2.6974 124.6821 3.8786
v  0.7495 125.4316 1.0483
v  0.7495 125.7825 2.4634
v  0.7495 125.4316 3.8786
# 145 vertices

vn 0.0677 -0.9757 0.2084
vn -0.0677 -0.9757 0.2084
vn -0.1772 -0.9757 0.1288
vn -0.2191 -0.9757 0.0000
vn -0.1772 -0.9757 -0.1288
vn -0.0677 -0.9757 -0.2084
vn 0.0677 -0.9757 -0.2084
vn 0.1772 -0.9757 -0.1288
vn 0.2191 -0.9757 -0.0000
vn 0.1772 -0.9757 0.1288
vn 0.3821 -0.8814 -0.2776
vn 0.4723 -0.8814 -0.0000
vn 0.1460 -0.8814 -0.4492
vn -0.1460 -0.8814 -0.4492
vn -0.3821 -0.8814 -0.2776
vn -0.4723 -0.8814 0.0000
vn -0.3821 -0.8814 0.2776
vn -0.1460 -0.8814 0.4492
vn 0.1460 -0.8814 0.4492
vn 0.3821 -0.8814 0.2776
vn 0.5047 -0.7815 -0.3667
vn 0.6238 -0.7815 0.0000
vn 0.1928 -0.7815 -0.5933
vn -0.1928 -0.7815 -0.5933
vn -0.5047 -0.7816 -0.3667
vn -0.6238 -0.7815 0.0000
vn -0.5047 -0.7816 0.3667
vn -0.1928 -0.7815 0.5933
vn 0.1928 -0.7815 0.5933
vn 0.5047 -0.7815 0.3667
vn 0.6217 -0.6399 -0.4517
vn 0.7685 -0.6399 -0.0000
vn 0.2375 -0.6399 -0.7309
vn -0.2375 -0.6399 -0.7309
vn -0.6217 -0.6399 -0.4517
vn -0.7685 -0.6399 0.0000
vn -0.6217 -0.6399 0.4517
vn -0.2375 -0.6399 0.7309
vn 0.2375 -0.6399 0.7309
vn 0.6217 -0.6399 0.4517
vn 0.7059 -0.4886 -0.5129
vn 0.8725 -0.4886 -0.0000
vn 0.2696 -0.4886 -0.8298
vn -0.2696 -0.4886 -0.8298
vn -0.7059 -0.4886 -0.5129
vn -0.8725 -0.4886 0.0000
vn -0.7059 -0.4886 0.5129
vn -0.2696 -0.4886 0.8298
vn 0.2696 -0.4886 0.8298
vn 0.7059 -0.4886 0.5129
vn 0.7606 -0.3257 -0.5616
vn 0.9436 -0.3310 0.0000
vn 0.3007 -0.2952 -0.9069
vn -0.2916 -0.3310 -0.8974
vn -0.7634 -0.3310 -0.5546
vn -0.9436 -0.3310 0.0000
vn -0.7634 -0.3310 0.5546
vn -0.2916 -0.3310 0.8974
vn 0.2916 -0.3310 0.8974
vn 0.7634 -0.3310 0.5546
vn 0.7959 -0.1242 -0.5926
vn 0.9983 -0.0556 0.0163
vn 0.3050 -0.1038 -0.9467
vn -0.2846 -0.0757 -0.9556
vn -0.8068 -0.1144 -0.5797
vn -0.9959 -0.0902 0.0027
vn -0.8106 -0.0831 0.5797
vn -0.2985 -0.1111 0.9479
vn 0.2986 -0.0834 0.9507
vn 0.8138 -0.1050 0.5716
vn 0.8194 0.0637 -0.5697
vn 0.9970 0.0776 -0.0010
vn 0.2873 0.0282 -0.9574
vn -0.3097 0.0608 -0.9489
vn -0.8043 0.0608 -0.5910
vn -0.9986 0.0503 0.0166
vn -0.8179 0.0668 0.5715
vn -0.3030 0.0490 0.9517
vn 0.3162 0.0664 0.9464
vn 0.8186 0.0499 0.5722
vn 0.7894 0.1168 -0.6026
vn 0.9903 0.1380 0.0160
vn 0.3169 0.1378 -0.9384
vn -0.2969 0.1270 -0.9464
vn -0.8029 0.1289 -0.5820
vn -0.9920 0.1256 0.0115
vn -0.7978 0.1118 0.5925
vn -0.3631 0.1358 0.9218
vn 0.3047 0.1312 0.9434
vn 0.8002 0.1520 0.5801
vn 0.8128 0.2404 -0.5306
vn 0.9765 0.2149 0.0132
vn 0.2825 0.2149 -0.9349
vn -0.2809 0.2388 -0.9296
vn -0.7959 0.2206 -0.5638
vn -0.9713 0.2370 -0.0186
vn -0.7860 0.2308 0.5736
vn -0.2883 0.2068 0.9349
vn 0.3142 0.2096 0.9259
vn 0.8381 0.1960 0.5090
vn 0.7688 0.3416 -0.5406
vn 0.9469 0.3213 -0.0120
vn 0.2320 0.3459 -0.9091
vn -0.2937 0.3511 -0.8891
vn -0.7513 0.3622 -0.5516
vn -0.9357 0.3528 0.0074
vn -0.7672 0.3651 0.5274
vn -0.2874 0.3569 0.8888
vn 0.3135 0.3521 0.8819
vn 0.7696 0.3436 0.5382
vn 0.7059 0.4884 -0.5129
vn 0.8726 0.4884 0.0000
vn 0.2696 0.4884 -0.8299
vn -0.2843 0.4646 -0.8386
vn -0.7038 0.4776 -0.5260
vn -0.8801 0.4748 0.0062
vn -0.7124 0.4825 0.5095
vn -0.2696 0.4884 0.8299
vn 0.2643 0.4940 0.8283
vn 0.7067 0.4922 0.5082
vn 0.6793 0.5431 -0.4936
vn 0.8397 0.5431 -0.0000
vn 0.2595 0.5431 -0.7986
vn -0.2595 0.5431 -0.7986
vn -0.6793 0.5431 -0.4936
vn -0.8397 0.5431 -0.0000
vn -0.6793 0.5431 0.4936
vn -0.2595 0.5431 0.7986
vn 0.2595 0.5431 0.7986
vn 0.6793 0.5431 0.4936
vn 0.5612 0.7279 -0.3938
vn 0.6748 0.7380 -0.0000
vn 0.2372 0.6861 -0.6878
vn -0.2372 0.6861 -0.6878
vn 0.0000 0.6575 -0.7535
vn -0.5612 0.7279 -0.3938
vn -0.6748 0.7380 -0.0000
vn -0.5612 0.7279 0.3938
vn -0.2372 0.6861 0.6878
vn 0.2372 0.6861 0.6878
vn 0.0000 0.6575 0.7535
vn 0.5612 0.7279 0.3938
vn -0.0000 0.9215 -0.3883
vn -0.0000 1.0000 -0.0000
vn -0.0000 0.9215 0.3883
# 145 vertex normals

vt 0.1219 0.0000 -0.6180
vt 0.0500 0.0000 -1.0000
vt 0.1500 0.0000 -1.0000
vt 0.3837 0.0000 -0.6180
vt 0.6618 0.0000 0.0000
vt 0.8781 0.0000 0.6180
vt 0.9500 0.0000 1.0000
vt 0.8500 0.0000 1.0000
vt 0.7500 0.0000 1.0000
vt 0.3382 0.0000 0.0000
vt 0.9141 0.0000 0.8090
vt 0.0859 0.0000 -0.8090
vt 0.7559 0.0000 0.5000
vt 0.5668 0.0000 0.1910
vt 0.2441 0.0000 -0.5000
# 15 texture coords

o Head
g Head
usemtl wire_225087143
s 1
f 17/5/24 18/6/25 19/7/26 
f 19/7/26 20/8/27 21/9/28 
f 21/9/28 22/10/29 23/11/30 
f 23/11/30 24/12/31 25/13/32 
f 21/9/28 23/11/30 25/13/32 
f 19/7/26 21/9/28 25/13/32 
f 17/5/24 19/7/26 25/13/32 
f 26/14/33 17/5/24 25/13/32 
f 25/13/32 24/12/31 27/12/34 
f 27/12/34 28/13/35 25/13/32 
f 24/12/31 23/11/30 29/11/36 
f 29/11/36 27/12/34 24/12/31 
f 23/11/30 22/10/29 30/10/37 
f 30/10/37 29/11/36 23/11/30 
f 22/10/29 21/9/28 31/9/38 
f 31/9/38 30/10/37 22/10/29 
f 21/9/28 20/8/27 32/8/39 
f 32/8/39 31/9/38 21/9/28 
f 20/8/27 19/7/26 33/7/40 
f 33/7/40 32/8/39 20/8/27 
f 19/7/26 18/6/25 34/6/41 
f 34/6/41 33/7/40 19/7/26 
f 18/6/25 17/5/24 35/5/42 
f 35/5/42 34/6/41 18/6/25 
f 17/5/24 26/14/33 36/14/43 
f 36/14/43 35/5/42 17/5/24 
f 26/14/33 25/13/32 28/13/35 
f 28/13/35 36/14/43 26/14/33 
f 28/13/35 27/12/34 37/12/44 
f 37/12/44 38/13/45 28/13/35 
f 27/12/34 29/11/36 39/11/46 
f 39/11/46 37/12/44 27/12/34 
f 29/11/36 30/10/37 40/10/47 
f 40/10/47 39/11/46 29/11/36 
f 30/10/37 31/9/38 41/9/48 
f 41/9/48 40/10/47 30/10/37 
f 31/9/38 32/8/39 42/8/49 
f 42/8/49 41/9/48 31/9/38 
f 32/8/39 33/7/40 43/7/50 
f 43/7/50 42/8/49 32/8/39 
f 33/7/40 34/6/41 44/6/51 
f 44/6/51 43/7/50 33/7/40 
f 34/6/41 35/5/42 45/5/52 
f 45/5/52 44/6/51 34/6/41 
f 35/5/42 36/14/43 46/14/53 
f 46/14/53 45/5/52 35/5/42 
f 36/14/43 28/13/35 38/13/45 
f 38/13/45 46/14/53 36/14/43 
f 38/13/45 37/12/44 47/12/54 
f 47/12/54 48/13/55 38/13/45 
f 37/12/44 39/11/46 49/11/56 
f 49/11/56 47/12/54 37/12/44 
f 39/11/46 40/10/47 50/10/57 
f 50/10/57 49/11/56 39/11/46 
f 40/10/47 41/9/48 51/9/58 
f 51/9/58 50/10/57 40/10/47 
f 41/9/48 42/8/49 52/8/59 
f 52/8/59 51/9/58 41/9/48 
f 42/8/49 43/7/50 53/7/60 
f 53/7/60 52/8/59 42/8/49 
f 43/7/50 44/6/51 54/6/61 
f 54/6/61 53/7/60 43/7/50 
f 44/6/51 45/5/52 55/5/62 
f 55/5/62 54/6/61 44/6/51 
f 45/5/52 46/14/53 56/14/63 
f 56/14/63 55/5/62 45/5/52 
f 46/14/53 38/13/45 48/13/55 
f 48/13/55 56/14/63 46/14/53 
f 48/13/55 47/12/54 57/12/64 
f 57/12/64 58/13/65 48/13/55 
f 47/12/54 49/11/56 59/11/66 
f 59/11/66 57/12/64 47/12/54 
f 49/11/56 50/10/57 60/10/67 
f 60/10/67 59/11/66 49/11/56 
f 50/10/57 51/9/58 61/9/68 
f 61/9/68 60/10/67 50/10/57 
f 51/9/58 52/8/59 62/8/69 
f 62/8/69 61/9/68 51/9/58 
f 52/8/59 53/7/60 63/7/70 
f 63/7/70 62/8/69 52/8/59 
f 53/7/60 54/6/61 64/6/71 
f 64/6/71 63/7/70 53/7/60 
f 54/6/61 55/5/62 65/5/72 
f 65/5/72 64/6/71 54/6/61 
f 55/5/62 56/14/63 66/14/73 
f 66/14/73 65/5/72 55/5/62 
f 56/14/63 48/13/55 58/13/65 
f 58/13/65 66/14/73 56/14/63 
f 58/13/65 57/12/64 67/12/74 
f 67/12/74 68/13/75 58/13/65 
f 57/12/64 59/11/66 69/11/76 
f 69/11/76 67/12/74 57/12/64 
f 59/11/66 60/10/67 70/10/77 
f 70/10/77 69/11/76 59/11/66 
f 60/10/67 61/9/68 71/9/78 
f 71/9/78 70/10/77 60/10/67 
f 61/9/68 62/8/69 72/8/79 
f 72/8/79 71/9/78 61/9/68 
f 62/8/69 63/7/70 73/7/80 
f 73/7/80 72/8/79 62/8/69 
f 63/7/70 64/6/71 74/6/81 
f 74/6/81 73/7/80 63/7/70 
f 64/6/71 65/5/72 75/5/82 
f 75/5/82 74/6/81 64/6/71 
f 65/5/72 66/14/73 76/14/83 
f 76/14/83 75/5/82 65/5/72 
f 66/14/73 58/13/65 68/13/75 
f 68/13/75 76/14/83 66/14/73 
f 68/13/75 67/12/74 77/12/84 
f 77/12/84 78/13/85 68/13/75 
f 67/12/74 69/11/76 79/11/86 
f 79/11/86 77/12/84 67/12/74 
f 69/11/76 70/10/77 80/10/87 
f 80/10/87 79/11/86 69/11/76 
f 70/10/77 71/9/78 81/9/88 
f 81/9/88 80/10/87 70/10/77 
f 71/9/78 72/8/79 82/8/89 
f 82/8/89 81/9/88 71/9/78 
f 72/8/79 73/7/80 83/7/90 
f 83/7/90 82/8/89 72/8/79 
f 73/7/80 74/6/81 84/6/91 
f 84/6/91 83/7/90 73/7/80 
f 74/6/81 75/5/82 85/5/92 
f 85/5/92 84/6/91 74/6/81 
f 75/5/82 76/14/83 86/14/93 
f 86/14/93 85/5/92 75/5/82 
f 76/14/83 68/13/75 78/13/85 
f 78/13/85 86/14/93 76/14/83 
f 78/13/85 77/12/84 87/12/94 
f 87/12/94 88/13/95 78/13/85 
f 77/12/84 79/11/86 89/11/96 
f 89/11/96 87/12/94 77/12/84 
f 79/11/86 80/10/87 90/10/97 
f 90/10/97 89/11/96 79/11/86 
f 80/10/87 81/9/88 91/9/98 
f 91/9/98 90/10/97 80/10/87 
f 81/9/88 82/8/89 92/8/99 
f 92/8/99 91/9/98 81/9/88 
f 82/8/89 83/7/90 93/7/100 
f 93/7/100 92/8/99 82/8/89 
f 83/7/90 84/6/91 94/6/101 
f 94/6/101 93/7/100 83/7/90 
f 84/6/91 85/5/92 95/5/102 
f 95/5/102 94/6/101 84/6/91 
f 85/5/92 86/14/93 96/14/103 
f 96/14/103 95/5/102 85/5/92 
f 86/14/93 78/13/85 88/13/95 
f 88/13/95 96/14/103 86/14/93 
f 88/13/95 87/12/94 97/12/104 
f 97/12/104 98/13/105 88/13/95 
f 87/12/94 89/11/96 99/11/106 
f 99/11/106 97/12/104 87/12/94 
f 89/11/96 90/10/97 100/10/107 
f 100/10/107 99/11/106 89/11/96 
f 90/10/97 91/9/98 101/9/108 
f 101/9/108 100/10/107 90/10/97 
f 91/9/98 92/8/99 102/8/109 
f 102/8/109 101/9/108 91/9/98 
f 92/8/99 93/7/100 103/7/110 
f 103/7/110 102/8/109 92/8/99 
f 93/7/100 94/6/101 104/6/111 
f 104/6/111 103/7/110 93/7/100 
f 94/6/101 95/5/102 105/5/112 
f 105/5/112 104/6/111 94/6/101 
f 95/5/102 96/14/103 106/14/113 
f 106/14/113 105/5/112 95/5/102 
f 96/14/103 88/13/95 98/13/105 
f 98/13/105 106/14/113 96/14/103 
f 98/13/105 97/12/104 107/12/114 
f 107/12/114 108/13/115 98/13/105 
f 97/12/104 99/11/106 109/11/116 
f 109/11/116 107/12/114 97/12/104 
f 99/11/106 100/10/107 110/10/117 
f 110/10/117 109/11/116 99/11/106 
f 100/10/107 101/9/108 111/9/118 
f 111/9/118 110/10/117 100/10/107 
f 101/9/108 102/8/109 112/8/119 
f 112/8/119 111/9/118 101/9/108 
f 102/8/109 103/7/110 113/7/120 
f 113/7/120 112/8/119 102/8/109 
f 103/7/110 104/6/111 114/6/121 
f 114/6/121 113/7/120 103/7/110 
f 104/6/111 105/5/112 115/5/122 
f 115/5/122 114/6/121 104/6/111 
f 105/5/112 106/14/113 116/14/123 
f 116/14/123 115/5/122 105/5/112 
f 106/14/113 98/13/105 108/13/115 
f 108/13/115 116/14/123 106/14/113 
f 108/13/115 107/12/114 117/12/124 
f 117/12/124 118/13/125 108/13/115 
f 107/12/114 109/11/116 119/11/126 
f 119/11/126 117/12/124 107/12/114 
f 109/11/116 110/10/117 120/10/127 
f 120/10/127 119/11/126 109/11/116 
f 110/10/117 111/9/118 121/9/128 
f 121/9/128 120/10/127 110/10/117 
f 111/9/118 112/8/119 122/8/129 
f 122/8/129 121/9/128 111/9/118 
f 112/8/119 113/7/120 123/7/130 
f 123/7/130 122/8/129 112/8/119 
f 113/7/120 114/6/121 124/6/131 
f 124/6/131 123/7/130 113/7/120 
f 114/6/121 115/5/122 125/5/132 
f 125/5/132 124/6/131 114/6/121 
f 115/5/122 116/14/123 126/14/133 
f 126/14/133 125/5/132 115/5/122 
f 116/14/123 108/13/115 118/13/125 
f 118/13/125 126/14/133 116/14/123 
f 118/13/125 117/12/124 127/12/134 
f 127/12/134 128/13/135 118/13/125 
f 117/12/124 119/11/126 129/11/136 
f 129/11/136 127/12/134 117/12/124 
f 119/11/126 120/10/127 130/10/137 
f 130/10/137 129/11/136 119/11/126 
f 120/10/127 121/9/128 131/9/138 
f 131/9/138 130/10/137 120/10/127 
f 121/9/128 122/8/129 132/8/139 
f 132/8/139 131/9/138 121/9/128 
f 122/8/129 123/7/130 133/7/140 
f 133/7/140 132/8/139 122/8/129 
f 123/7/130 124/6/131 134/6/141 
f 134/6/141 133/7/140 123/7/130 
f 124/6/131 125/5/132 135/5/142 
f 135/5/142 134/6/141 124/6/131 
f 125/5/132 126/14/133 136/14/143 
f 136/14/143 135/5/142 125/5/132 
f 126/14/133 118/13/125 128/13/135 
f 128/13/135 136/14/143 126/14/133 
f 128/13/135 127/12/134 137/12/144 
f 137/12/144 138/13/145 128/13/135 
f 127/12/134 129/11/136 139/11/146 
f 139/11/146 137/12/144 127/12/134 
f 129/11/136 130/10/137 140/10/147 
f 140/10/147 139/11/146 129/11/136 
f 130/10/137 131/9/138 141/9/148 
f 141/9/148 140/10/147 130/10/137 
f 131/9/138 132/8/139 142/8/149 
f 142/8/149 141/9/148 131/9/138 
f 132/8/139 133/7/140 143/7/150 
f 143/7/150 142/8/149 132/8/139 
f 133/7/140 134/6/141 144/6/151 
f 144/6/151 143/7/150 133/7/140 
f 134/6/141 135/5/142 145/5/152 
f 145/5/152 144/6/151 134/6/141 
f 135/5/142 136/14/143 146/14/153 
f 146/14/153 145/5/152 135/5/142 
f 136/14/143 128/13/135 138/13/145 
f 138/13/145 146/14/153 136/14/143 
f 138/13/145 137/12/144 147/12/154 
f 147/12/154 148/13/155 138/13/145 
f 137/12/144 139/11/146 149/11/156 
f 149/11/156 147/12/154 137/12/144 
f 139/11/146 140/10/147 150/10/157 
f 139/11/146 150/10/157 151/15/158 
f 139/11/146 151/15/158 149/11/156 
f 140/10/147 141/9/148 152/9/159 
f 152/9/159 150/10/157 140/10/147 
f 141/9/148 142/8/149 153/8/160 
f 153/8/160 152/9/159 141/9/148 
f 142/8/149 143/7/150 154/7/161 
f 154/7/161 153/8/160 142/8/149 
f 143/7/150 144/6/151 155/6/162 
f 155/6/162 154/7/161 143/7/150 
f 144/6/151 145/5/152 156/5/163 
f 144/6/151 156/5/163 157/16/164 
f 144/6/151 157/16/164 155/6/162 
f 145/5/152 146/14/153 158/14/165 
f 158/14/165 156/5/163 145/5/152 
f 146/14/153 138/13/145 148/13/155 
f 148/13/155 158/14/165 146/14/153 
f 147/12/154 159/17/166 160/18/167 
f 160/18/167 148/13/155 147/12/154 
f 160/18/167 161/19/168 158/14/165 
f 158/14/165 148/13/155 160/18/167 
f 152/9/159 153/8/160 160/18/167 
f 160/18/167 159/17/166 152/9/159 
f 160/18/167 153/8/160 154/7/161 
f 154/7/161 161/19/168 160/18/167 
f 155/6/162 157/16/164 161/19/168 
f 161/19/168 154/7/161 155/6/162 
f 156/5/163 158/14/165 161/19/168 
f 161/19/168 157/16/164 156/5/163 
f 149/11/156 151/15/158 159/17/166 
f 159/17/166 147/12/154 149/11/156 
f 150/10/157 152/9/159 159/17/166 
f 159/17/166 151/15/158 150/10/157 
# 286 faces

